###########################################################
# OBJ file generated by UC Berkeley Automation Sciences Lab
#
# Num Vertices: 350
# Num Triangles: 314
#
###########################################################

v -0.005243 0.229895 -0.388250
v -0.005024 -0.229943 -0.388028
v -0.009988 -0.229891 -0.275037
v -0.012633 -0.089204 -0.216416
v -0.014197 -0.048708 -0.181286
v -0.014283 -0.047375 -0.179335
v -0.016407 -0.029636 -0.131183
v -0.016436 0.030694 -0.131213
v -0.014385 0.048230 -0.178093
v -0.014277 0.049934 -0.180577
v -0.012775 0.090024 -0.215215
v -0.010207 0.229948 -0.275259
v 0.027382 0.030295 -0.058874
v 0.027411 -0.029684 -0.058845
v 0.022862 -0.029694 -0.074620
v 0.022862 -0.029654 -0.074620
v 0.016500 -0.029168 -0.126457
v 0.016500 -0.029202 -0.126903
v 0.016472 0.030245 -0.126931
v 0.016478 0.030103 -0.125197
v 0.022919 0.030338 -0.074304
v 0.022919 0.030285 -0.074304
v 0.016487 0.030491 -0.129374
v 0.016516 -0.029421 -0.129345
v 0.011104 -0.229881 -0.275022
v 0.006872 -0.229937 -0.387028
v 0.006653 0.229901 -0.387251
v 0.010885 0.229957 -0.275245
v 0.013217 0.090037 -0.215197
v 0.014573 0.049423 -0.179808
v 0.014639 0.048244 -0.178073
v 0.016487 0.030491 -0.129374
v 0.016516 -0.029421 -0.129345
v 0.014636 -0.047361 -0.179315
v 0.014591 -0.048173 -0.180516
v 0.013254 -0.089192 -0.216399
v 0.027382 0.030295 -0.058874
v 0.029978 0.030298 -0.054068
v 0.030006 -0.029681 -0.054040
v 0.027411 -0.029684 -0.058845
v -0.021968 -0.029715 -0.074650
v -0.026579 -0.029710 -0.059364
v -0.026608 0.030269 -0.059393
v -0.022085 0.030264 -0.074335
v -0.022085 0.030317 -0.074335
v -0.016206 0.030088 -0.125220
v -0.016436 0.030694 -0.131213
v -0.016407 -0.029636 -0.131183
v -0.016211 -0.029183 -0.126479
v -0.021968 -0.029675 -0.074651
v -0.030001 0.030270 -0.054415
v -0.026608 0.030269 -0.059393
v -0.026579 -0.029710 -0.059364
v -0.029972 -0.029709 -0.054386
v 0.011104 -0.229881 -0.275022
v -0.009988 -0.229891 -0.275037
v -0.005024 -0.229943 -0.388028
v 0.001696 -0.229957 -0.424976
v 0.002202 -0.229957 -0.424976
v 0.006872 -0.229937 -0.387028
v 0.001983 0.229881 -0.425198
v 0.002202 -0.229957 -0.424976
v 0.001696 -0.229957 -0.424976
v 0.001477 0.229881 -0.425198
v -0.005243 0.229895 -0.388250
v -0.010207 0.229948 -0.275259
v 0.010885 0.229957 -0.275245
v 0.006653 0.229901 -0.387251
v 0.001983 0.229881 -0.425198
v 0.001477 0.229881 -0.425198
v -0.010207 0.229948 -0.275259
v -0.012775 0.090024 -0.215215
v 0.013217 0.090037 -0.215197
v 0.010885 0.229957 -0.275245
v 0.016487 0.030491 -0.129374
v 0.014639 0.048244 -0.178073
v -0.014385 0.048230 -0.178093
v -0.016436 0.030694 -0.131213
v -0.016206 0.030088 -0.125220
v 0.016478 0.030103 -0.125197
v 0.016472 0.030245 -0.126931
v -0.012775 0.090024 -0.215215
v -0.014277 0.049934 -0.180577
v 0.014573 0.049423 -0.179808
v 0.013217 0.090037 -0.215197
v -0.016206 0.030088 -0.125220
v -0.022085 0.030317 -0.074335
v 0.022919 0.030338 -0.074304
v 0.016478 0.030103 -0.125197
v -0.022085 0.030264 -0.074335
v 0.022919 0.030285 -0.074304
v 0.022919 0.030338 -0.074304
v -0.022085 0.030317 -0.074335
v 0.013254 -0.089192 -0.216399
v -0.012633 -0.089204 -0.216416
v -0.009988 -0.229891 -0.275037
v 0.011104 -0.229881 -0.275022
v -0.014283 -0.047375 -0.179335
v 0.014636 -0.047361 -0.179315
v 0.016516 -0.029421 -0.129345
v 0.016500 -0.029202 -0.126903
v 0.016500 -0.029168 -0.126457
v -0.016211 -0.029183 -0.126479
v -0.016407 -0.029636 -0.131183
v 0.014591 -0.048173 -0.180516
v -0.014197 -0.048708 -0.181286
v -0.012633 -0.089204 -0.216416
v 0.013254 -0.089192 -0.216399
v 0.022862 -0.029654 -0.074620
v -0.021968 -0.029675 -0.074651
v -0.016211 -0.029183 -0.126479
v 0.016500 -0.029168 -0.126457
v 0.022862 -0.029654 -0.074620
v 0.022862 -0.029694 -0.074620
v -0.021968 -0.029715 -0.074650
v -0.021968 -0.029675 -0.074651
v 0.029765 -0.029510 0.299946
v 0.030006 -0.029681 -0.054040
v 0.029978 0.030298 -0.054068
v 0.029737 0.030469 0.299920
v 0.029731 0.029592 0.309269
v 0.029720 0.031623 0.323350
v 0.029751 -0.032158 0.323382
v -0.030242 0.030441 0.299879
v -0.030001 0.030270 -0.054415
v -0.029972 -0.029709 -0.054386
v -0.030214 -0.029538 0.299906
v -0.030228 -0.032186 0.323342
v -0.030259 0.031595 0.323310
v -0.030248 0.029563 0.309229
v -0.033195 0.036270 0.334216
v -0.030259 0.031595 0.323310
v -0.030228 -0.032186 0.323342
v -0.030906 -0.033599 0.327267
v -0.033163 -0.036929 0.334255
v -0.036570 -0.033600 0.340570
v -0.036602 0.034452 0.340537
v -0.033872 0.037168 0.335709
v -0.038535 -0.031358 0.343285
v -0.043253 -0.024565 0.348294
v -0.044185 -0.022878 0.349104
v -0.048363 -0.012100 0.352168
v -0.049957 -0.000414 0.353132
v -0.049965 0.000425 0.353133
v -0.048784 0.011247 0.352416
v -0.044945 0.022274 0.349687
v -0.043277 0.025417 0.348271
v -0.039464 0.031088 0.344349
v 0.049710 -0.004926 0.353370
v 0.049705 0.005872 0.353368
v 0.050000 0.000473 0.353371
v 0.049710 -0.004926 0.353370
v 0.044673 -0.022007 0.351059
v 0.044652 0.022946 0.351035
v 0.049705 0.005872 0.353368
v 0.043318 -0.024523 0.350224
v 0.042764 -0.025460 0.349856
v 0.036978 -0.033209 0.344684
v 0.033711 -0.036484 0.340078
v 0.033676 0.037402 0.340043
v 0.037613 0.033389 0.345397
v 0.043120 0.025759 0.350087
v 0.043294 0.025460 0.350201
v 0.029702 -0.032731 0.325081
v 0.029671 0.032156 0.325047
v 0.031112 0.036301 0.334256
v 0.032456 0.038477 0.337691
v 0.031880 -0.038078 0.336320
v 0.029783 -0.033570 0.327311
v 0.029751 -0.032158 0.323382
v 0.029720 0.031623 0.323350
v -0.030906 -0.033599 0.327267
v 0.029783 -0.033570 0.327311
v 0.031880 -0.038078 0.336320
v 0.025036 -0.042830 0.343015
v 0.019210 -0.045707 0.346276
v 0.002100 -0.049492 0.349922
v -0.002013 -0.049494 0.349918
v -0.011448 -0.048202 0.348728
v -0.020231 -0.045249 0.345742
v -0.024946 -0.042854 0.342979
v -0.033163 -0.036929 0.334255
v -0.030228 -0.032186 0.323342
v -0.030214 -0.029538 0.299906
v 0.029765 -0.029510 0.299946
v 0.029751 -0.032158 0.323382
v 0.029702 -0.032731 0.325081
v 0.029765 -0.029510 0.299946
v -0.030214 -0.029538 0.299906
v -0.029972 -0.029709 -0.054386
v -0.026579 -0.029710 -0.059364
v -0.021968 -0.029715 -0.074650
v 0.022862 -0.029694 -0.074620
v 0.027411 -0.029684 -0.058845
v 0.030006 -0.029681 -0.054040
v 0.000044 -0.049535 0.349741
v -0.002013 -0.049494 0.349918
v 0.002100 -0.049492 0.349922
v -0.030001 0.030270 -0.054415
v -0.030242 0.030441 0.299879
v 0.029737 0.030469 0.299920
v 0.029978 0.030298 -0.054068
v 0.027382 0.030295 -0.058874
v 0.022919 0.030285 -0.074304
v -0.022085 0.030264 -0.074335
v -0.026608 0.030269 -0.059393
v 0.029720 0.031623 0.323350
v 0.029731 0.029592 0.309269
v -0.030248 0.029563 0.309229
v -0.030259 0.031595 0.323310
v -0.033195 0.036270 0.334216
v 0.031112 0.036301 0.334256
v 0.029671 0.032156 0.325047
v 0.029737 0.030469 0.299920
v -0.030242 0.030441 0.299879
v 0.032456 0.038477 0.337691
v -0.033872 0.037168 0.335709
v -0.027825 0.041948 0.342140
v -0.024988 0.043719 0.344059
v -0.020148 0.046178 0.346421
v -0.001267 0.050413 0.349829
v -0.000004 0.050430 0.349840
v 0.017825 0.047151 0.347281
v 0.024995 0.043743 0.344091
v 0.025989 0.043153 0.343477
v -0.043316 0.025445 0.405141
v -0.025029 0.043748 0.405144
v -0.024988 0.043719 0.344059
v -0.027825 0.041948 0.342140
v -0.033872 0.037168 0.335709
v -0.036602 0.034452 0.340537
v -0.039464 0.031088 0.344349
v -0.043277 0.025417 0.348271
v -0.050000 0.000450 0.405147
v -0.049965 0.000425 0.353133
v -0.049957 -0.000414 0.353132
v -0.048363 -0.012100 0.352168
v -0.044185 -0.022878 0.349104
v -0.043253 -0.024565 0.348294
v -0.043292 -0.024538 0.405164
v -0.048784 0.011247 0.352416
v -0.044945 0.022274 0.349687
v -0.024946 -0.042854 0.342979
v -0.024988 -0.042824 0.405185
v -0.038535 -0.031358 0.343285
v -0.036570 -0.033600 0.340570
v -0.033163 -0.036929 0.334255
v 0.000044 -0.049535 0.349741
v 0.000006 -0.049508 0.405206
v -0.020231 -0.045249 0.345742
v -0.011448 -0.048202 0.348728
v -0.002013 -0.049494 0.349918
v 0.024994 -0.042800 0.405217
v 0.025036 -0.042830 0.343015
v 0.031880 -0.038078 0.336320
v 0.033711 -0.036484 0.340078
v 0.036978 -0.033209 0.344684
v 0.042764 -0.025460 0.349856
v 0.043318 -0.024523 0.350224
v 0.043280 -0.024496 0.405224
v 0.002100 -0.049492 0.349922
v 0.019210 -0.045707 0.346276
v 0.049965 0.000498 0.405215
v 0.044673 -0.022007 0.351059
v 0.049710 -0.004926 0.353370
v 0.050000 0.000473 0.353371
v 0.043257 0.025486 0.405197
v 0.043294 0.025460 0.350201
v 0.043120 0.025758 0.350087
v 0.037613 0.033389 0.345397
v 0.033676 0.037402 0.340043
v 0.032456 0.038477 0.337691
v 0.025990 0.043153 0.343477
v 0.024995 0.043743 0.344091
v 0.024953 0.043772 0.405176
v 0.049705 0.005872 0.353368
v 0.044652 0.022946 0.351035
v -0.000041 0.050457 0.405156
v 0.017825 0.047151 0.347281
v -0.000004 0.050430 0.349840
v -0.001267 0.050413 0.349829
v -0.020148 0.046178 0.346421
v -0.030021 0.000470 0.425152
v -0.025996 -0.014523 0.425162
v -0.015014 -0.025495 0.425176
v -0.000017 -0.029505 0.425189
v 0.014976 -0.025480 0.425196
v 0.025947 -0.014498 0.425198
v 0.029958 0.000498 0.425196
v 0.025933 0.015491 0.425185
v 0.014951 0.026463 0.425172
v -0.000046 0.030473 0.425159
v -0.015038 0.026448 0.425152
v -0.026010 0.015466 0.425149
v -0.005024 -0.229943 -0.388028
v -0.005243 0.229895 -0.388250
v 0.001477 0.229881 -0.425198
v 0.001696 -0.229957 -0.424976
v -0.000048 0.040469 0.422476
v -0.000046 0.030473 0.425159
v 0.014951 0.026463 0.425172
v 0.019947 0.035121 0.422494
v 0.023608 0.041457 0.415173
v -0.000047 0.047783 0.415156
v 0.034590 0.020492 0.422510
v 0.025933 0.015491 0.425185
v 0.039956 0.000502 0.422524
v 0.029958 0.000498 0.425196
v 0.025947 -0.014498 0.425198
v 0.034609 -0.019494 0.422530
v 0.040953 -0.023153 0.415215
v 0.047279 0.000502 0.415211
v 0.019980 -0.034137 0.422525
v 0.014976 -0.025480 0.425196
v -0.000010 -0.039503 0.422516
v -0.000017 -0.029505 0.425189
v -0.015014 -0.025495 0.425176
v -0.020006 -0.034156 0.422497
v -0.023657 -0.040498 0.415182
v -0.000002 -0.046825 0.415199
v -0.034649 -0.019527 0.422482
v -0.025996 -0.014523 0.425162
v -0.040015 0.000464 0.422468
v -0.030021 0.000470 0.425152
v -0.026010 0.015466 0.425149
v -0.034668 0.020459 0.422462
v -0.041002 0.024112 0.415139
v -0.047328 0.000457 0.415147
v -0.020039 0.035102 0.422466
v -0.015038 0.026448 0.425152
v -0.023696 0.041434 0.415141
v -0.000041 0.050457 0.405156
v 0.024953 0.043772 0.405176
v -0.025029 0.043748 0.405144
v -0.043316 0.025445 0.405141
v -0.050000 0.000450 0.405147
v -0.043292 -0.024538 0.405164
v -0.040980 -0.023192 0.415163
v -0.024988 -0.042824 0.405185
v 0.000006 -0.049508 0.405206
v 0.024994 -0.042800 0.405217
v 0.023647 -0.040476 0.415214
v 0.043280 -0.024496 0.405224
v 0.049965 0.000498 0.405215
v 0.043257 0.025486 0.405197
v 0.040931 0.024151 0.415196
v 0.001983 0.229881 -0.425198
v 0.006653 0.229901 -0.387251
v 0.006872 -0.229937 -0.387028
v 0.002202 -0.229957 -0.424976
f 3 1 2
f 4 1 3
f 12 1 4
f 11 12 4
f 5 11 4
f 6 11 5
f 10 11 6
f 9 10 6
f 7 9 6
f 8 9 7
f 16 14 15
f 17 14 16
f 13 17 18
f 13 14 17
f 22 13 18
f 21 22 18
f 20 21 18
f 19 20 18
f 19 18 24
f 23 19 24
f 36 25 26
f 35 36 26
f 32 33 34
f 32 34 35
f 32 35 26
f 31 32 26
f 30 31 26
f 29 30 26
f 28 29 26
f 27 28 26
f 38 39 40
f 37 38 40
f 47 48 49
f 46 47 49
f 50 46 49
f 44 46 50
f 44 50 41
f 45 46 44
f 42 44 41
f 43 44 42
f 52 53 54
f 51 52 54
f 55 56 57
f 58 55 57
f 60 55 58
f 59 60 58
f 64 62 63
f 61 62 64
f 65 69 70
f 68 69 65
f 66 68 65
f 67 68 66
f 72 74 71
f 73 74 72
f 78 76 77
f 79 76 78
f 75 76 79
f 81 75 79
f 80 81 79
f 85 83 77
f 85 82 83
f 84 85 77
f 76 84 77
f 87 89 86
f 88 89 87
f 92 93 90
f 91 92 90
f 96 94 95
f 97 94 96
f 98 103 104
f 102 103 98
f 101 102 98
f 100 101 98
f 99 100 98
f 106 98 107
f 99 98 107
f 105 99 107
f 108 105 107
f 112 110 111
f 109 110 112
f 114 115 116
f 113 114 116
f 122 123 117
f 121 122 117
f 120 121 117
f 118 120 117
f 119 120 118
f 127 125 126
f 124 125 127
f 130 124 127
f 128 130 127
f 129 130 128
f 132 134 135
f 132 133 134
f 136 132 135
f 131 132 136
f 138 131 136
f 137 138 136
f 140 136 139
f 141 136 140
f 142 136 141
f 143 136 142
f 144 136 143
f 145 136 144
f 146 136 145
f 147 136 146
f 148 136 147
f 137 136 148
f 150 151 149
f 155 152 153
f 154 155 153
f 157 158 159
f 156 157 159
f 153 156 159
f 154 153 159
f 163 154 159
f 162 163 159
f 161 162 159
f 160 161 159
f 169 159 168
f 164 159 169
f 165 159 164
f 166 159 165
f 160 159 166
f 167 160 166
f 171 164 170
f 165 164 171
f 181 182 172
f 180 181 172
f 179 180 172
f 178 179 172
f 177 178 172
f 176 177 172
f 175 176 172
f 173 175 172
f 174 175 173
f 173 183 184
f 173 172 183
f 187 173 184
f 186 187 184
f 185 186 184
f 191 189 190
f 192 189 191
f 188 189 192
f 193 188 192
f 194 188 193
f 195 188 194
f 198 196 197
f 206 204 205
f 199 204 206
f 203 204 199
f 202 203 199
f 200 202 199
f 201 202 200
f 210 208 209
f 207 208 210
f 211 207 210
f 213 207 211
f 212 213 211
f 214 215 209
f 208 214 209
f 218 211 217
f 212 211 218
f 219 212 218
f 216 212 219
f 220 216 219
f 225 216 220
f 224 225 220
f 221 224 220
f 223 224 221
f 222 223 221
f 229 231 232
f 229 230 231
f 233 229 232
f 228 229 233
f 226 228 233
f 227 228 226
f 240 235 236
f 240 236 237
f 240 237 238
f 240 238 239
f 234 235 240
f 234 233 242
f 234 242 241
f 234 241 235
f 226 233 234
f 245 240 239
f 246 240 245
f 247 240 246
f 244 240 247
f 243 244 247
f 250 244 243
f 251 244 250
f 249 244 251
f 252 249 251
f 248 249 252
f 255 253 254
f 260 253 255
f 256 260 255
f 257 260 256
f 258 260 257
f 259 260 258
f 261 249 248
f 253 249 261
f 262 253 261
f 254 253 262
f 264 260 259
f 263 260 264
f 265 263 264
f 266 263 265
f 273 271 272
f 274 271 273
f 270 271 274
f 269 270 274
f 268 269 274
f 267 268 274
f 275 267 274
f 276 263 266
f 267 263 276
f 277 267 276
f 268 267 277
f 278 279 280
f 278 274 279
f 275 274 278
f 227 280 281
f 227 281 282
f 227 282 228
f 278 280 227
f 284 294 283
f 293 294 284
f 285 293 284
f 292 293 285
f 286 292 285
f 291 292 286
f 287 291 286
f 290 291 287
f 288 290 287
f 289 290 288
f 297 298 295
f 296 297 295
f 301 299 300
f 302 299 301
f 302 304 299
f 303 304 302
f 306 302 301
f 305 302 306
f 310 308 309
f 307 308 310
f 311 307 310
f 312 307 311
f 309 314 313
f 310 309 313
f 316 317 318
f 315 316 318
f 315 318 319
f 320 315 319
f 318 322 321
f 317 322 318
f 324 326 323
f 325 326 324
f 323 327 328
f 326 327 323
f 329 326 325
f 330 329 325
f 299 329 330
f 300 299 330
f 304 331 329
f 299 304 329
f 304 333 332
f 303 333 304
f 331 332 334
f 304 332 331
f 327 334 335
f 331 334 327
f 328 335 336
f 327 335 328
f 338 336 337
f 328 336 338
f 319 338 337
f 339 319 337
f 320 319 339
f 340 320 339
f 342 320 340
f 341 342 340
f 311 342 341
f 343 311 341
f 312 311 343
f 344 312 343
f 346 312 344
f 345 346 344
f 346 345 333
f 303 346 333
f 305 303 302
f 346 303 305
f 307 346 305
f 312 346 307
f 305 306 308
f 307 305 308
f 314 316 315
f 313 314 315
f 313 315 320
f 342 313 320
f 310 313 342
f 311 310 342
f 321 324 323
f 322 324 321
f 321 328 338
f 323 328 321
f 319 321 338
f 318 321 319
f 326 331 327
f 329 331 326
f 348 349 350
f 347 348 350
